Project 1: Exploratory Data Analysis
…
Introduction

These datasets were taken from the Association of American Medical Colleges (AAMC) website, and contain data from medical schools in 2019. "appsandmats" is a dataset that contains information about U.S. medical school applications and matriculants by school, state of legal residence, and sex, 2019-2020. "raceeth" contains information about the total enrollment by U.S. medical school and race/ethnicity for the 2019-2020 year. These are interesting to me because I am in the process of interviewing for medical schools in Texas only, and it is cool to see data from schools that I have interviewed for but also around the US. I am expecting to see that schools with a lot of applicants will also have a lot of matriculants, and I am hoping to explore a new column later for acceptance rate to see if it matches with common conceptions of what schools are "good schools".

library(tidyverse)
appsandmats <- read_csv("~/Project/appsandmats.csv", col_names = TRUE)
raceeth <- read_csv("~/Project/raceeth.csv", col_names = TRUE)

appsandmats <- appsandmats[, 1:12]
raceeth <- raceeth[-1, ]

raceeth

## # A tibble: 153 x 12
##    State `Medical School` `American India… Asian `Black or \nAfr…
##    <chr> <chr>                       <dbl> <dbl>            <dbl>
##  1 AL    South Alabama                   5    45               30
##  2 AR    Arkansas                       17    75               41
##  3 AZ    Arizona                        22   115               39
##  4 AZ    Arizona Phoenix                 5    91               13
##  5 CA    California                      0    84                4
##  6 CA    California Nort…                5   208                6
##  7 CA    Loma Linda                      1   281               60
##  8 CA    Southern Cal-Ke…                1   360               64
##  9 CA    Stanford                        8   205               40
## 10 CA    UC Davis                        7   186               43
## # … with 143 more rows, and 7 more variables: `Hispanic, Latino, or \nof
## #   Spanish Origin` <dbl>, `Native Hawaiian or \nOther Pacific Islander` <dbl>,
## #   White <dbl>, Other <dbl>, `Unknown \nRace/Ethnicity` <dbl>, `Non-U.S.
## #   Citizen and Non-Permanent Resident` <dbl>, `Unduplicated\nTotal
## #   \nEnrollment` <dbl>

Joining/Merging

There were 153 observations of 12 variables in the race and ethnicity dataset (raceeth), and 154 observations of 12 variables in the applications and matriculations dataset (appsandmats). Mayo is the only school included in raceeth that is not included in appandmats. Alabama and "Mayo-Alix" are in appsandmats but not raceeth. I did an inner join so that I would have no NAs, and it dropped those rows of data. The innerjoin data set has 152 observations of 23 variables.

fulljoin <- appsandmats %>% full_join(raceeth, by = c(MedicalSchool = "Medical School"), 
    na.rm = TRUE)
fulljoin

## # A tibble: 155 x 23
##    State.x MedicalSchool Applications `%appinstate` `%appoutofstate` `%appmen`
##    <chr>   <chr>                <dbl>         <dbl>            <dbl>     <dbl>
##  1 AL      Alabama               4373          11.5             88.5      47.4
##  2 AL      South Alabama         1554          27.7             72.3      51.5
##  3 AR      Arkansas              2566          14               86        52.2
##  4 AZ      Arizona               9940           8               92        49.3
##  5 AZ      Arizona Phoe…         5835          13.4             86.6      48.9
##  6 CA      California            5494          50.3             49.7      46.1
##  7 CA      California N…         4184          62.2             37.8      46.8
##  8 CA      Loma Linda            6318          37.2             62.8      47.8
##  9 CA      Southern Cal…         8041          47.9             52.1      50.2
## 10 CA      Stanford              7506          32.6             67.4      51.4
## # … with 145 more rows, and 17 more variables: `%appwomen` <dbl>,
## #   Matriculants <dbl>, `%matinstate` <dbl>, `%matoutofstate` <dbl>,
## #   `%matmen` <dbl>, `%matwomen` <dbl>, State.y <chr>, `American Indian \nor
## #   Alaska Native` <dbl>, Asian <dbl>, `Black or \nAfrican American` <dbl>,
## #   `Hispanic, Latino, or \nof Spanish Origin` <dbl>, `Native Hawaiian or
## #   \nOther Pacific Islander` <dbl>, White <dbl>, Other <dbl>, `Unknown
## #   \nRace/Ethnicity` <dbl>, `Non-U.S. Citizen and Non-Permanent
## #   Resident` <dbl>, `Unduplicated\nTotal \nEnrollment` <dbl>

innerjoin <- appsandmats %>% inner_join(raceeth, by = c(MedicalSchool = "Medical School"), 
    na.rm = TRUE)
innerjoin

## # A tibble: 152 x 23
##    State.x MedicalSchool Applications `%appinstate` `%appoutofstate` `%appmen`
##    <chr>   <chr>                <dbl>         <dbl>            <dbl>     <dbl>
##  1 AL      South Alabama         1554          27.7             72.3      51.5
##  2 AR      Arkansas              2566          14               86        52.2
##  3 AZ      Arizona               9940           8               92        49.3
##  4 AZ      Arizona Phoe…         5835          13.4             86.6      48.9
##  5 CA      California            5494          50.3             49.7      46.1
##  6 CA      California N…         4184          62.2             37.8      46.8
##  7 CA      Loma Linda            6318          37.2             62.8      47.8
##  8 CA      Southern Cal…         8041          47.9             52.1      50.2
##  9 CA      Stanford              7506          32.6             67.4      51.4
## 10 CA      UC Davis              7161          65.1             34.9      47.4
## # … with 142 more rows, and 17 more variables: `%appwomen` <dbl>,
## #   Matriculants <dbl>, `%matinstate` <dbl>, `%matoutofstate` <dbl>,
## #   `%matmen` <dbl>, `%matwomen` <dbl>, State.y <chr>, `American Indian \nor
## #   Alaska Native` <dbl>, Asian <dbl>, `Black or \nAfrican American` <dbl>,
## #   `Hispanic, Latino, or \nof Spanish Origin` <dbl>, `Native Hawaiian or
## #   \nOther Pacific Islander` <dbl>, White <dbl>, Other <dbl>, `Unknown
## #   \nRace/Ethnicity` <dbl>, `Non-U.S. Citizen and Non-Permanent
## #   Resident` <dbl>, `Unduplicated\nTotal \nEnrollment` <dbl>
…
percmeddata <- bigmeddata %>% mutate(`American Indian \nor Alaska Native` = `American Indian \nor Alaska Native`/`Unduplicated\nTotal \nEnrollment` * 
    100, Asian = Asian/`Unduplicated\nTotal \nEnrollment` * 100, 
    `Black or \nAfrican American` = `Black or \nAfrican American`/`Unduplicated\nTotal \nEnrollment` * 
        100, `Hispanic, Latino, or \nof Spanish Origin` = `Hispanic, Latino, or \nof Spanish Origin`/`Unduplicated\nTotal \nEnrollment` * 
        100, White = White/`Unduplicated\nTotal \nEnrollment` * 
        100, Other = Other/`Unduplicated\nTotal \nEnrollment` * 
        100, `Native Hawaiian or \nOther Pacific Islander` = `Native Hawaiian or \nOther Pacific Islander`/`Unduplicated\nTotal \nEnrollment` * 
        100, `Non-U.S. Citizen and Non-Permanent Resident` = `Non-U.S. Citizen and Non-Permanent Resident`/`Unduplicated\nTotal \nEnrollment` * 
        100, `Unknown  \nRace/Ethnicity` = `Unknown  \nRace/Ethnicity`/`Unduplicated\nTotal \nEnrollment` * 
        100)

percmeddata

## # A tibble: 149 x 23
##    State.x MedicalSchool Applications `%appinstate` `%appoutofstate` `%appmen`
##    <chr>   <chr>                <dbl>         <dbl>            <dbl>     <dbl>
##  1 AL      South Alabama         1554          27.7             72.3      51.5
##  2 AR      Arkansas              2566          14               86        52.2
##  3 AZ      Arizona               9940           8               92        49.3
##  4 AZ      Arizona Phoe…         5835          13.4             86.6      48.9
##  5 CA      California            5494          50.3             49.7      46.1
##  6 CA      California N…         4184          62.2             37.8      46.8
##  7 CA      Loma Linda            6318          37.2             62.8      47.8
##  8 CA      Southern Cal…         8041          47.9             52.1      50.2
##  9 CA      Stanford              7506          32.6             67.4      51.4
## 10 CA      UC Davis              7161          65.1             34.9      47.4
## # … with 139 more rows, and 17 more variables: `%appwomen` <dbl>,
## #   Matriculants <dbl>, `%matinstate` <dbl>, `%matoutofstate` <dbl>,
## #   `%matmen` <dbl>, `%matwomen` <dbl>, `American Indian \nor Alaska
## #   Native` <dbl>, Asian <dbl>, `Black or \nAfrican American` <dbl>, `Hispanic,
## #   Latino, or \nof Spanish Origin` <dbl>, `Native Hawaiian or \nOther Pacific
## #   Islander` <dbl>, White <dbl>, Other <dbl>, `Unknown
## #   \nRace/Ethnicity` <dbl>, `Non-U.S. Citizen and Non-Permanent
## #   Resident` <dbl>, `Unduplicated\nTotal \nEnrollment` <dbl>,
## #   acceptancerate <dbl>
…
library(kableExtra)

percmeddata %>% summarize_if(is.character, n_distinct)

## # A tibble: 1 x 2
##   State.x MedicalSchool
##     <int>         <int>
## 1      45           149

longdata <- percmeddata %>% select(-MedicalSchool) %>% group_by(State.x) %>% 
    summarize_if(is.numeric, c(sd = sd, var = var, min = min, 
        max = max, mean = mean))
longdata

## # A tibble: 45 x 106
##    State.x Applications_sd `%appinstate_sd` `%appoutofstate… `%appmen_sd`
##    <chr>             <dbl>            <dbl>            <dbl>        <dbl>
##  1 AL                  NA             NA               NA          NA    
##  2 AR                  NA             NA               NA          NA    
##  3 AZ                2903.             3.82             3.82        0.283
##  4 CA                2269.            13.3             13.3         1.60 
##  5 CO                  NA             NA               NA          NA    
##  6 CT                2214.             6.69             6.69        2.49 
##  7 DC                3020.             0                0           3.74 
##  8 FL                1785.            11.5             11.5         1.81 
##  9 GA                4166.            42.7             42.7         3.35 
## 10 HI                  NA             NA               NA          NA    
## # … with 35 more rows, and 101 more variables: `%appwomen_sd` <dbl>,
## #   Matriculants_sd <dbl>, `%matinstate_sd` <dbl>, `%matoutofstate_sd` <dbl>,
## #   `%matmen_sd` <dbl>, `%matwomen_sd` <dbl>, `American Indian \nor Alaska
## #   Native_sd` <dbl>, Asian_sd <dbl>, `Black or \nAfrican American_sd` <dbl>,
## #   `Hispanic, Latino, or \nof Spanish Origin_sd` <dbl>, `Native Hawaiian or
## #   \nOther Pacific Islander_sd` <dbl>, White_sd <dbl>, Other_sd <dbl>,
## #   `Unknown \nRace/Ethnicity_sd` <dbl>, `Non-U.S. Citizen and Non-Permanent
## #   Resident_sd` <dbl>, `Unduplicated\nTotal \nEnrollment_sd` <dbl>,
## #   acceptancerate_sd <dbl>, Applications_var <dbl>, `%appinstate_var` <dbl>,
…
